[
{
  "model": "blog_api.post",
  "pk": 1,
  "fields": {
    "title": "New post",
    "content": "Hello it is",
    "author": 1,
    "created_at": "2024-04-10T15:08:30.729Z",
    "updated_at": "2024-04-10T15:08:30.729Z"
  }
},
{
  "model": "blog_api.post",
  "pk": 2,
  "fields": {
    "title": "Second post",
    "content": "Very nice",
    "author": 1,
    "created_at": "2024-04-10T15:08:57.438Z",
    "updated_at": "2024-04-10T15:08:57.438Z"
  }
},
{
  "model": "blog_api.post",
  "pk": 4,
  "fields": {
    "title": "My first post",
    "content": "Hello my dear friend",
    "author": 2,
    "created_at": "2024-04-10T18:19:14.414Z",
    "updated_at": "2024-04-10T18:19:14.414Z"
  }
},
{
  "model": "blog_api.comment",
  "pk": 1,
  "fields": {
    "text": "I like this post",
    "author": 1,
    "post": 1,
    "created_at": "2024-04-10T15:10:04.394Z",
    "updated_at": "2024-04-10T15:10:04.394Z"
  }
},
{
  "model": "blog_api.comment",
  "pk": 2,
  "fields": {
    "text": "I agree with you!",
    "author": 2,
    "post": 1,
    "created_at": "2024-04-10T15:13:07.842Z",
    "updated_at": "2024-04-10T16:42:26.597Z"
  }
},
{
  "model": "blog_api.comment",
  "pk": 3,
  "fields": {
    "text": "what a post!",
    "author": 4,
    "post": 2,
    "created_at": "2024-04-10T15:13:35.514Z",
    "updated_at": "2024-04-10T15:13:35.514Z"
  }
},
{
  "model": "blog_api.comment",
  "pk": 4,
  "fields": {
    "text": "Hello world",
    "author": 1,
    "post": 2,
    "created_at": "2024-04-10T17:18:32.818Z",
    "updated_at": "2024-04-10T17:18:32.818Z"
  }
}
]
